{
    "key": "group_5e5ab34827f2a",
    "title": "Weekmenu 2",
    "fields": [
        {
            "key": "field_5e5ab35bce5c3",
            "label": "Today name",
            "name": "today_name",
            "type": "relationship",
            "instructions": "",
            "required": 0,
            "conditional_logic": 0,
            "wrapper": {
                "width": "",
                "class": "",
                "id": ""
            },
            "post_type": [
                "osetin_recipe"
            ],
            "taxonomy": [],
            "filters": [
                "search",
                "post_type"
            ],
            "elements": [
                "featured_image"
            ],
            "min": "",
            "max": 1,
            "return_format": "object"
        }
    ],
    "location": [
        [
            {
                "param": "post_type",
                "operator": "==",
                "value": "weekmenu-upd"
            }
        ]
    ],
    "menu_order": 0,
    "position": "normal",
    "style": "default",
    "label_placement": "top",
    "instruction_placement": "label",
    "hide_on_screen": "",
    "active": 1,
    "description": "",
    "modified": 1583003781
}